{
  "endpoint": {
    "url": "http://localhost:8000/substrate/torus/balance-series/address/5C4n8kb3mno7i8vQmqNgsQbwZozHvPyou8TAfZfZ7msTkS5f/changes",
    "method": "GET",
    "path": "/substrate/{network}/balance-series/address/{address}/changes",
    "operation_id": "get_address_balance_changes_substrate__network__balance_series_address__address__changes_get",
    "summary": "Get Address Balance Changes",
    "tags": [
      "balance-series"
    ]
  },
  "request": {
    "query_params": {
      "page": 1,
      "page_size": 1,
      "assets": [
        "TOR"
      ],
      "min_change_threshold": 1000.0
    },
    "path_params": {
      "network": "torus",
      "address": "5C4n8kb3mno7i8vQmqNgsQbwZozHvPyou8TAfZfZ7msTkS5f"
    },
    "body": null
  },
  "response": {
    "status_code": 200,
    "headers": {
      "date": "Wed, 02 Jul 2025 09:03:37 GMT",
      "server": "uvicorn",
      "content-length": "456",
      "content-type": "application/json",
      "x-correlation-id": "req_0b757ed4ae7a"
    },
    "content_type": "application/json",
    "data": {
      "items": [
        {
          "period_start_timestamp": 1736364240000,
          "period_end_timestamp": 1736378640000,
          "block_height": 53998,
          "address": "5C4n8kb3mno7i8vQmqNgsQbwZozHvPyou8TAfZfZ7msTkS5f",
          "asset": "TOR",
          "total_balance": 33943.197529858844,
          "free_balance_change": 29999.39964720841,
          "reserved_balance_change": 0.0,
          "staked_balance_change": 0.0,
          "total_balance_change": 29999.39964720841,
          "total_balance_percent_change": 760.672847
        }
      ],
      "page": 1,
      "page_size": 1,
      "total_pages": 8,
      "total_items": 8
    }
  }
}