{
  "endpoint": {
    "url": "http://localhost:8000/substrate/torus/balance-transfers/volume-series",
    "method": "GET",
    "path": "/substrate/{network}/balance-transfers/volume-series",
    "operation_id": "get_balance_transfers_volume_series_substrate__network__balance_transfers_volume_series_get",
    "summary": "Get Balance Transfers Volume Series",
    "tags": [
      "balance-transfers"
    ]
  },
  "request": {
    "query_params": {
      "page": 1,
      "page_size": 1,
      "assets": [
        "TOR"
      ],
      "start_timestamp": 1742815440000,
      "end_timestamp": 1842815440000,
      "period_type": "4hour"
    },
    "path_params": {
      "network": "torus"
    },
    "body": null
  },
  "response": {
    "status_code": 200,
    "headers": {
      "date": "Wed, 02 Jul 2025 19:48:34 GMT",
      "server": "uvicorn",
      "content-length": "897",
      "content-type": "application/json",
      "x-correlation-id": "req_b08671c2bda7"
    },
    "content_type": "application/json",
    "data": {
      "items": [
        {
          "period_start": "2025-07-01T00:00:00",
          "period_end": "2025-07-01T04:00:00",
          "asset": "TOR",
          "transaction_count": 21,
          "unique_senders": 16,
          "unique_receivers": 16,
          "active_addresses": 32,
          "total_volume": 6037.918734184138,
          "total_fees": 0.0053127818174826,
          "avg_transfer_amount": 287.51993972305416,
          "max_transfer_amount": 1649.9996343534056,
          "min_transfer_amount": 1650.0,
          "network_density": 0.03225806451612903,
          "period_start_block": 1922836,
          "period_end_block": 1922841,
          "blocks_in_period": 117,
          "tx_count_lt_01": 0,
          "tx_count_01_to_1": 12,
          "tx_count_1_to_10": 0,
          "tx_count_10_to_100": 3,
          "tx_count_100_to_1k": 3,
          "tx_count_1k_to_10k": 3,
          "tx_count_gte_10k": 0,
          "volume_lt_01": 0.0,
          "volume_01_to_1": 8.018344899136649,
          "volume_1_to_10": 0.0,
          "volume_10_to_100": 179.9668297616672,
          "volume_100_to_1k": 899.9668297616671,
          "volume_1k_to_10k": 4949.966729761667,
          "volume_gte_10k": 0.0
        }
      ],
      "page": 1,
      "page_size": 1,
      "total_pages": 178,
      "total_items": 178
    }
  }
}