{
  "endpoint": {
    "url": "http://localhost:8000/substrate/torus/balance-series/volume-series",
    "method": "GET",
    "path": "/substrate/{network}/balance-series/volume-series",
    "operation_id": "get_balance_volume_series_substrate__network__balance_series_volume_series_get",
    "summary": "Get Balance Volume Series",
    "tags": [
      "balance-series"
    ]
  },
  "request": {
    "query_params": {
      "page": 1,
      "page_size": 1,
      "assets": [
        "TOR"
      ],
      "start_timestamp": 1742815440000,
      "end_timestamp": 1842815440000
    },
    "path_params": {
      "network": "torus"
    },
    "body": null
  },
  "response": {
    "status_code": 200,
    "headers": {
      "date": "Fri, 04 Jul 2025 21:00:01 GMT",
      "server": "uvicorn",
      "content-length": "366",
      "content-type": "application/json",
      "x-correlation-id": "req_84e67ec0ac23"
    },
    "content_type": "application/json",
    "data": {
      "items": [
        {
          "period_start_timestamp": 1751628240000,
          "period_end_timestamp": 1751642640000,
          "asset": "TOR",
          "active_addresses_count": 335,
          "total_balance_changes": 675.5472849595429,
          "total_free_balance_changes": 168.9007408069041,
          "total_reserved_balance_changes": 0.0,
          "total_staked_balance_changes": 506.6465441526389
        }
      ],
      "page": 1,
      "page_size": 1,
      "total_pages": 613,
      "total_items": 613
    }
  }
}