{
  "endpoint": {
    "url": "http://localhost:8000/substrate/torus/balance-transfers/volume-aggregations/daily",
    "method": "GET",
    "path": "/substrate/{network}/balance-transfers/volume-aggregations/{period}",
    "operation_id": "get_volume_aggregations_substrate__network__balance_transfers_volume_aggregations__period__get",
    "summary": "Get Volume Aggregations",
    "tags": [
      "balance-transfers"
    ]
  },
  "request": {
    "query_params": {
      "page": 1,
      "page_size": 1,
      "assets": [
        "TOR"
      ],
      "start_date": "2025-01-01",
      "end_date": "2026-01-31"
    },
    "path_params": {
      "network": "torus",
      "period": "daily"
    },
    "body": null
  },
  "response": {
    "status_code": 200,
    "headers": {
      "date": "Fri, 04 Jul 2025 21:00:01 GMT",
      "server": "uvicorn",
      "content-length": "1057",
      "content-type": "application/json",
      "x-correlation-id": "req_ba75c7ef2a7a"
    },
    "content_type": "application/json",
    "data": {
      "items": [
        {
          "date": "2025-07-04",
          "asset_symbol": "TOR",
          "asset_contract": "native",
          "daily_transaction_count": 5,
          "max_unique_senders": 5,
          "max_unique_receivers": 3,
          "daily_total_volume": 6956.279932066438,
          "daily_total_fees": 0.0007312931885902,
          "daily_avg_transfer_amount": 1391.2559864132875,
          "daily_max_transfer_amount": 1593.9483163511914,
          "daily_min_transfer_amount": 1160.3513678132194,
          "max_daily_active_addresses": 8,
          "avg_daily_network_density": 0.17857142857142858,
          "avg_daily_amount_std_dev": 137.59875591538514,
          "avg_daily_median_amount": 1400.9901239510134,
          "daily_tx_count_lt_01": 0,
          "daily_tx_count_01_to_1": 0,
          "daily_tx_count_1_to_10": 0,
          "daily_tx_count_10_to_100": 0,
          "daily_tx_count_100_to_1k": 0,
          "daily_tx_count_1k_to_10k": 5,
          "daily_tx_count_gte_10k": 0,
          "daily_volume_lt_01": 0.0,
          "daily_volume_01_to_1": 0.0,
          "daily_volume_1_to_10": 0.0,
          "daily_volume_10_to_100": 0.0,
          "daily_volume_100_to_1k": 0.0,
          "daily_volume_1k_to_10k": 6956.279932066438,
          "daily_volume_gte_10k": 0.0,
          "daily_start_block": 1959683,
          "daily_end_block": 1959695
        }
      ],
      "page": 1,
      "page_size": 1,
      "total_pages": 157,
      "total_items": 157
    }
  }
}