{
  "endpoint": {
    "url": "http://localhost:8000/substrate/torus/balance-transfers/address-analytics",
    "method": "GET",
    "path": "/substrate/{network}/balance-transfers/address-analytics",
    "operation_id": "get_address_analytics_substrate__network__balance_transfers_address_analytics_get",
    "summary": "Get Address Analytics",
    "tags": [
      "balance-transfers"
    ]
  },
  "request": {
    "query_params": {
      "page": 1,
      "page_size": 1,
      "assets": [
        "TOR"
      ],
      "address_type": "Exchange",
      "min_volume": 1000.0
    },
    "path_params": {
      "network": "torus"
    },
    "body": null
  },
  "response": {
    "status_code": 200,
    "headers": {
      "date": "Fri, 04 Jul 2025 21:00:01 GMT",
      "server": "uvicorn",
      "content-length": "1005",
      "content-type": "application/json",
      "x-correlation-id": "req_5ac1a959c3f3"
    },
    "content_type": "application/json",
    "data": {
      "items": [
        {
          "address": "5DDXwRsgvdfukGZbq2o27n43qyDaAnZ6rsfeckGxnaQ1ih2D",
          "asset_symbol": "TOR",
          "asset_contract": "native",
          "asset_verified": "verified",
          "asset_name": "Torus",
          "total_transactions": 1720,
          "outgoing_count": 1019,
          "incoming_count": 701,
          "total_sent": 4245665.261417499,
          "total_received": 19687617.7774175,
          "total_volume": 23933283.038834997,
          "unique_recipients": 151,
          "unique_senders": 328,
          "first_activity": 1736541680000,
          "last_activity": 1751624944000,
          "activity_span_seconds": 15083264000,
          "total_fees_paid": 0.0369668715985108,
          "avg_fee_paid": 3.6277597250746e-05,
          "night_transactions": 109,
          "morning_transactions": 297,
          "afternoon_transactions": 371,
          "evening_transactions": 242,
          "tx_count_lt_01": 0,
          "tx_count_01_to_1": 658,
          "tx_count_1_to_10": 93,
          "tx_count_10_to_100": 40,
          "tx_count_100_to_1k": 75,
          "tx_count_1k_to_10k": 97,
          "tx_count_gte_10k": 56,
          "sent_amount_variance": 1065912279.4281367,
          "received_amount_variance": 12758242159.299398,
          "active_days": 128,
          "address_type": "Exchange"
        }
      ],
      "page": 1,
      "page_size": 1,
      "total_pages": 2,
      "total_items": 2
    }
  }
}